[
	{"id":1,"title":"star wars","main_actor":"Harrison Ford","date":"1977-01-23","name":"Harrison Ford","description":"Je passe en hyperespace!"},
	{"id":2,"title":"platoon","main_actor":"Willem Dafoe","date":"1986-03-23","name":"Willem Dafoe","description":"Barnes enfant de salaud..."}
]
